[
 	{
 		"alias":"animalreader",
        "url":"https://animalreader.ru/wp-content/uploads/2016/09/koshache-derevo-animalreader.ru-001.jpg"
  	},
  	{
 		"alias":"lance24.ru",
        "url":"http://lance24.ru/test/Firefox.rar"
  	},
  	{
  		"alias":"ftp106116.hostfx.ru",
        "url":"http://ftp106116.hostfx.ru/2.zip"	
  	}
]
